[
    {
        "vid": "2040_2044",
        "votes": 0
    },
    {
        "vid": "1874_2038",
        "votes": 0
    },
    {
        "vid": "2047_2036",
        "votes": 0
    },
    {
        "vid": "1531_2024",
        "votes": 0
    },
    {
        "vid": "2018_2019",
        "votes": 0
    },
    {
        "vid": "2008_2015",
        "votes": 0
    },
    {
        "vid": "1387_2014",
        "votes": 0
    },
    {
        "vid": "1867_2003",
        "votes": 0
    },
    {
        "vid": "37_1982",
        "votes": 0
    },
    {
        "vid": "653_1978",
        "votes": 0
    },
    {
        "vid": "1976_1977",
        "votes": 0
    },
    {
        "vid": "1937_1971",
        "votes": 0
    },
    {
        "vid": "1977_1971",
        "votes": 0
    },
    {
        "vid": "291_1964",
        "votes": 0
    },
    {
        "vid": "1881_1882",
        "votes": 0
    },
    {
        "vid": "1549_1879",
        "votes": 0
    },
    {
        "vid": "1034_1878",
        "votes": 0
    },
    {
        "vid": "2028_1876",
        "votes": 0
    },
    {
        "vid": "1806_1869",
        "votes": 0
    },
    {
        "vid": "1867_1865",
        "votes": 0
    },
    {
        "vid": "618_1851",
        "votes": 0
    },
    {
        "vid": "1865_1847",
        "votes": 0
    },
    {
        "vid": "2043_1837",
        "votes": 0
    },
    {
        "vid": "2037_1830",
        "votes": 0
    },
    {
        "vid": "1818_1827",
        "votes": 0
    },
    {
        "vid": "1868_1806",
        "votes": 0
    },
    {
        "vid": "1475_1791",
        "votes": 0
    },
    {
        "vid": "1742_1766",
        "votes": 0
    },
    {
        "vid": "1806_1764",
        "votes": 0
    },
    {
        "vid": "1742_1754",
        "votes": 0
    },
    {
        "vid": "1844_1742",
        "votes": 0
    },
    {
        "vid": "1745_1728",
        "votes": 0
    },
    {
        "vid": "1704_1723",
        "votes": 0
    },
    {
        "vid": "1720_1723",
        "votes": 0
    },
    {
        "vid": "1497_1710",
        "votes": 0
    },
    {
        "vid": "1740_1703",
        "votes": 0
    },
    {
        "vid": "1758_1675",
        "votes": 0
    },
    {
        "vid": "1701_1658",
        "votes": 0
    },
    {
        "vid": "2044_1655",
        "votes": 0
    },
    {
        "vid": "1549_1601",
        "votes": 0
    },
    {
        "vid": "1530_1533",
        "votes": 0
    },
    {
        "vid": "2008_1505",
        "votes": 0
    },
    {
        "vid": "1426_1501",
        "votes": 0
    },
    {
        "vid": "1443_1469",
        "votes": 0
    },
    {
        "vid": "1451_1460",
        "votes": 0
    },
    {
        "vid": "2011_1388",
        "votes": 0
    },
    {
        "vid": "2008_1378",
        "votes": 0
    },
    {
        "vid": "1295_1312",
        "votes": 0
    },
    {
        "vid": "1309_1312",
        "votes": 0
    },
    {
        "vid": "1352_1298",
        "votes": 0
    },
    {
        "vid": "1274_1289",
        "votes": 0
    },
    {
        "vid": "1121_1271",
        "votes": 0
    },
    {
        "vid": "1166_1271",
        "votes": 0
    },
    {
        "vid": "1969_1262",
        "votes": 0
    },
    {
        "vid": "1173_1246",
        "votes": 0
    },
    {
        "vid": "1287_1244",
        "votes": 0
    },
    {
        "vid": "1177_1237",
        "votes": 0
    },
    {
        "vid": "1191_1225",
        "votes": 0
    },
    {
        "vid": "1251_1199",
        "votes": 0
    },
    {
        "vid": "1159_1185",
        "votes": 0
    },
    {
        "vid": "1116_1184",
        "votes": 0
    },
    {
        "vid": "1097_1180",
        "votes": 0
    },
    {
        "vid": "1107_1160",
        "votes": 0
    },
    {
        "vid": "1023_1123",
        "votes": 0
    },
    {
        "vid": "1287_1111",
        "votes": 0
    },
    {
        "vid": "1105_1103",
        "votes": 0
    },
    {
        "vid": "1779_1086",
        "votes": 0
    },
    {
        "vid": "1078_1076",
        "votes": 0
    },
    {
        "vid": "1079_1069",
        "votes": 0
    },
    {
        "vid": "1107_1044",
        "votes": 0
    },
    {
        "vid": "1101_1026",
        "votes": 0
    },
    {
        "vid": "980_1020",
        "votes": 0
    },
    {
        "vid": "972_1005",
        "votes": 0
    },
    {
        "vid": "1010_998",
        "votes": 0
    },
    {
        "vid": "1039_977",
        "votes": 0
    },
    {
        "vid": "944_943",
        "votes": 0
    },
    {
        "vid": "970_931",
        "votes": 0
    },
    {
        "vid": "937_925",
        "votes": 0
    },
    {
        "vid": "845_907",
        "votes": 0
    },
    {
        "vid": "902_903",
        "votes": 0
    },
    {
        "vid": "912_887",
        "votes": 0
    },
    {
        "vid": "803_885",
        "votes": 0
    },
    {
        "vid": "854_865",
        "votes": 0
    },
    {
        "vid": "827_860",
        "votes": 0
    },
    {
        "vid": "844_841",
        "votes": 0
    },
    {
        "vid": "803_822",
        "votes": 0
    },
    {
        "vid": "821_822",
        "votes": 0
    },
    {
        "vid": "816_817",
        "votes": 0
    },
    {
        "vid": "781_782",
        "votes": 0
    },
    {
        "vid": "925_774",
        "votes": 0
    },
    {
        "vid": "760_769",
        "votes": 0
    },
    {
        "vid": "1865_754",
        "votes": 0
    },
    {
        "vid": "750_751",
        "votes": 0
    },
    {
        "vid": "729_739",
        "votes": 0
    },
    {
        "vid": "645_725",
        "votes": 0
    },
    {
        "vid": "737_725",
        "votes": 0
    },
    {
        "vid": "685_715",
        "votes": 0
    },
    {
        "vid": "400_711",
        "votes": 0
    },
    {
        "vid": "657_699",
        "votes": 0
    },
    {
        "vid": "569_691",
        "votes": 0
    },
    {
        "vid": "1863_687",
        "votes": 0
    },
    {
        "vid": "610_621",
        "votes": 0
    },
    {
        "vid": "635_619",
        "votes": 0
    },
    {
        "vid": "607_581",
        "votes": 0
    },
    {
        "vid": "423_530",
        "votes": 0
    },
    {
        "vid": "1900_528",
        "votes": 0
    },
    {
        "vid": "561_521",
        "votes": 0
    },
    {
        "vid": "429_519",
        "votes": 0
    },
    {
        "vid": "491_505",
        "votes": 0
    },
    {
        "vid": "453_497",
        "votes": 0
    },
    {
        "vid": "515_479",
        "votes": 0
    },
    {
        "vid": "475_461",
        "votes": 0
    },
    {
        "vid": "553_432",
        "votes": 0
    },
    {
        "vid": "334_369",
        "votes": 0
    },
    {
        "vid": "371_364",
        "votes": 0
    },
    {
        "vid": "303_361",
        "votes": 0
    },
    {
        "vid": "341_351",
        "votes": 0
    },
    {
        "vid": "316_323",
        "votes": 0
    },
    {
        "vid": "308_315",
        "votes": 0
    },
    {
        "vid": "1927_297",
        "votes": 0
    },
    {
        "vid": "250_269",
        "votes": 0
    },
    {
        "vid": "175_251",
        "votes": 0
    },
    {
        "vid": "68_62",
        "votes": 0
    }
]