{
  "rules": {
    ".read": true, 
    ".write": true, 
     
    "users":{
         ".indexOn":["uid"]
      },
        
    "c_mainroom":{
         ".indexOn":["uid"]
      },
        
    "c_sequences":{
          ".indexOn": ".value",
            "p2":{
              ".indexOn": ["vid", "votes"],
            } ,
              "seq1":{
              ".indexOn": ["vid", "votes"],
            } ,
              "seq2":{
              ".indexOn": ["vid", "votes"],
            } ,
              "seq3":{
              ".indexOn": ["vid", "votes"],
            } ,
              "seq2b":{
              ".indexOn": ["vid", "votes"],
            } ,
              "seq3b":{
              ".indexOn": ["vid", "votes"],
            } ,
      },
     "votes":{
           ".indexOn":["uid"]
        },
     "votes_agg":{
           ".indexOn":["vid"]
        },
      "votes_by_user":{
          ".indexOn":["vid_user"]
        },
          "messages":{
            ".indexOn": ".value",
          },
            
        "c_sessions_open":{
          	".indexOn": ".value",
        },
          
        "c_sessions_private":{
          	".indexOn": ".value",
        },
    
  }
}
